[2023-04-01 13:19:18,834] multiqc                                            [DEBUG  ]  This is MultiQC v1.14
[2023-04-01 13:19:18,834] multiqc                                            [DEBUG  ]  Command used: /usr/local/bin/multiqc --outdir case1741/ case1741/
[2023-04-01 13:19:19,095] multiqc                                            [DEBUG  ]  Latest MultiQC version is v1.14
[2023-04-01 13:19:19,095] multiqc                                            [DEBUG  ]  Working dir : /home/BCG2023_apandolfi/exam
[2023-04-01 13:19:19,095] multiqc                                            [DEBUG  ]  Template    : default
[2023-04-01 13:19:19,095] multiqc                                            [DEBUG  ]  Running Python 3.8.10 (default, Mar 13 2023, 10:26:41)  [GCC 9.4.0]
[2023-04-01 13:19:19,096] multiqc                                            [DEBUG  ]  Analysing modules: custom_content, ccs, ngsderive, purple, conpair, lima, peddy, somalier, methylQA, mosdepth, phantompeakqualtools, qualimap, preseq, hifiasm, quast, qorts, rna_seqc, rockhopper, rsem, rseqc, busco, bustools, goleft_indexcov, gffcompare, disambiguate, supernova, deeptools, sargasso, verifybamid, mirtrace, happy, mirtop, sambamba, gopeaks, homer, hops, macs2, theta2, snpeff, gatk, htseq, bcftools, featureCounts, fgbio, dragen, dragen_fastqc, dedup, pbmarkdup, damageprofiler, biobambam2, jcvi, mtnucratio, picard, vep, sentieon, prokka, qc3C, nanostat, samblaster, samtools, sexdeterrmine, eigenstratdatabasetools, bamtools, jellyfish, vcftools, longranger, stacks, varscan2, snippy, umitools, bbmap, bismark, biscuit, diamond, hicexplorer, hicup, hicpro, salmon, kallisto, slamdunk, star, hisat2, tophat, bowtie2, bowtie1, cellranger, snpsplit, odgi, pangolin, nextclade, humid, kat, leehom, adapterRemoval, bbduk, clipandmerge, cutadapt, flexbar, kaiju, kraken, malt, motus, trimmomatic, sickle, skewer, sortmerna, biobloomtools, fastq_screen, afterqc, fastp, fastqc, filtlong, prinseqplusplus, pychopper, porechop, pycoqc, minionqc, anglerfish, multivcfanalyzer, clusterflow, checkqc, bcl2fastq, bclconvert, interop, ivar, flash, seqyclean, optitype, whatshap
[2023-04-01 13:19:19,096] multiqc                                            [DEBUG  ]  Using temporary directory for creating report: /tmp/tmp1dvi4und
[2023-04-01 13:19:19,272] multiqc                                            [INFO   ]  Search path : /home/BCG2023_apandolfi/exam/case1741
[2023-04-01 13:19:20,615] multiqc                                            [DEBUG  ]  Summary of files that were skipped by the search: [skipped_module_specific_max_filesize: 207] // [skipped_no_match: 134] // [skipped_ignore_pattern: 11]
[2023-04-01 13:19:21,058] multiqc.plots.bargraph                             [DEBUG  ]  Using matplotlib version 3.6.0
[2023-04-01 13:19:21,059] multiqc.plots.linegraph                            [DEBUG  ]  Using matplotlib version 3.6.0
[2023-04-01 13:19:21,059] multiqc                                            [DEBUG  ]  No samples found: custom_content
[2023-04-01 13:19:21,073] multiqc.modules.qualimap.QM_BamQC                  [DEBUG  ]  Using default Qualimap thresholds: 1, 5, 10, 30, 50
[2023-04-01 13:19:21,099] multiqc.modules.qualimap.qualimap                  [INFO   ]  Found 3 BamQC reports
[2023-04-01 13:19:21,148] multiqc.modules.fastqc.fastqc                      [INFO   ]  Found 3 reports
[2023-04-01 13:19:21,281] multiqc                                            [INFO   ]  Compressing plot data
[2023-04-01 13:19:21,440] multiqc                                            [INFO   ]  Report      : case1741/multiqc_report.html
[2023-04-01 13:19:21,440] multiqc                                            [INFO   ]  Data        : case1741/multiqc_data
[2023-04-01 13:19:21,440] multiqc                                            [DEBUG  ]  Moving data file from '/tmp/tmp1dvi4und/multiqc_data' to 'case1741/multiqc_data'
[2023-04-01 13:19:21,553] multiqc                                            [INFO   ]  MultiQC complete
