Sample	QualiMap_mqc-generalstats-qualimap-avg_gc	QualiMap_mqc-generalstats-qualimap-1_x_pc	QualiMap_mqc-generalstats-qualimap-5_x_pc	QualiMap_mqc-generalstats-qualimap-10_x_pc	QualiMap_mqc-generalstats-qualimap-30_x_pc	QualiMap_mqc-generalstats-qualimap-50_x_pc	QualiMap_mqc-generalstats-qualimap-median_coverage	QualiMap_mqc-generalstats-qualimap-mean_coverage	QualiMap_mqc-generalstats-qualimap-percentage_aligned	QualiMap_mqc-generalstats-qualimap-mapped_reads	QualiMap_mqc-generalstats-qualimap-total_reads	QualiMap_mqc-generalstats-qualimap-general_error_rate	FastQC_mqc-generalstats-fastqc-percent_duplicates	FastQC_mqc-generalstats-fastqc-percent_gc	FastQC_mqc-generalstats-fastqc-avg_sequence_length	FastQC_mqc-generalstats-fastqc-median_sequence_length	FastQC_mqc-generalstats-fastqc-percent_fails	FastQC_mqc-generalstats-fastqc-total_sequences
child	45.57140421555132	80.37686360054639	50.82337546759855	41.37412767129234	22.764977690021304	14.514383341008383	5	24.1389	99.84422434519239	2968875.0	2973507.0	0.4	5.388042696997289	43.0	100.00088515009381	100	10.0	2973507.0
father	52.36914408748105	81.21370563043784	73.46435036043974	66.0648151423168	31.229328913149214	14.17926349550548	18	27.3188	99.89290571091938	2188247.0	2190593.0	0.19	6.118624162581327	50.0	101.0	101	0.0	2190593.0
mother	51.926627773282775	80.20705206167807	72.80147802638342	65.30592561523038	31.000216189654747	13.669363027290105	18	26.2561	99.81002844939808	2046412.0	2050307.0	0.2	8.519977756735358	50.0	101.0	101	0.0	2050307.0
