[2023-04-01 13:20:02,033] multiqc                                            [DEBUG  ]  This is MultiQC v1.14
[2023-04-01 13:20:02,033] multiqc                                            [DEBUG  ]  Command used: /usr/local/bin/multiqc --outdir case1789/ case1789/
[2023-04-01 13:20:02,473] multiqc                                            [DEBUG  ]  Latest MultiQC version is v1.14
[2023-04-01 13:20:02,473] multiqc                                            [DEBUG  ]  Working dir : /home/BCG2023_apandolfi/exam
[2023-04-01 13:20:02,473] multiqc                                            [DEBUG  ]  Template    : default
[2023-04-01 13:20:02,473] multiqc                                            [DEBUG  ]  Running Python 3.8.10 (default, Mar 13 2023, 10:26:41)  [GCC 9.4.0]
[2023-04-01 13:20:02,474] multiqc                                            [DEBUG  ]  Analysing modules: custom_content, ccs, ngsderive, purple, conpair, lima, peddy, somalier, methylQA, mosdepth, phantompeakqualtools, qualimap, preseq, hifiasm, quast, qorts, rna_seqc, rockhopper, rsem, rseqc, busco, bustools, goleft_indexcov, gffcompare, disambiguate, supernova, deeptools, sargasso, verifybamid, mirtrace, happy, mirtop, sambamba, gopeaks, homer, hops, macs2, theta2, snpeff, gatk, htseq, bcftools, featureCounts, fgbio, dragen, dragen_fastqc, dedup, pbmarkdup, damageprofiler, biobambam2, jcvi, mtnucratio, picard, vep, sentieon, prokka, qc3C, nanostat, samblaster, samtools, sexdeterrmine, eigenstratdatabasetools, bamtools, jellyfish, vcftools, longranger, stacks, varscan2, snippy, umitools, bbmap, bismark, biscuit, diamond, hicexplorer, hicup, hicpro, salmon, kallisto, slamdunk, star, hisat2, tophat, bowtie2, bowtie1, cellranger, snpsplit, odgi, pangolin, nextclade, humid, kat, leehom, adapterRemoval, bbduk, clipandmerge, cutadapt, flexbar, kaiju, kraken, malt, motus, trimmomatic, sickle, skewer, sortmerna, biobloomtools, fastq_screen, afterqc, fastp, fastqc, filtlong, prinseqplusplus, pychopper, porechop, pycoqc, minionqc, anglerfish, multivcfanalyzer, clusterflow, checkqc, bcl2fastq, bclconvert, interop, ivar, flash, seqyclean, optitype, whatshap
[2023-04-01 13:20:02,474] multiqc                                            [DEBUG  ]  Using temporary directory for creating report: /tmp/tmp6ozxv3fc
[2023-04-01 13:20:02,667] multiqc                                            [INFO   ]  Search path : /home/BCG2023_apandolfi/exam/case1789
[2023-04-01 13:20:03,949] multiqc                                            [DEBUG  ]  Summary of files that were skipped by the search: [skipped_module_specific_max_filesize: 207] // [skipped_no_match: 134] // [skipped_ignore_pattern: 11]
[2023-04-01 13:20:04,233] multiqc.plots.bargraph                             [DEBUG  ]  Using matplotlib version 3.6.0
[2023-04-01 13:20:04,234] multiqc.plots.linegraph                            [DEBUG  ]  Using matplotlib version 3.6.0
[2023-04-01 13:20:04,234] multiqc                                            [DEBUG  ]  No samples found: custom_content
[2023-04-01 13:20:04,242] multiqc.modules.qualimap.QM_BamQC                  [DEBUG  ]  Using default Qualimap thresholds: 1, 5, 10, 30, 50
[2023-04-01 13:20:04,257] multiqc.modules.qualimap.qualimap                  [INFO   ]  Found 3 BamQC reports
[2023-04-01 13:20:04,316] multiqc.modules.fastqc.fastqc                      [INFO   ]  Found 3 reports
[2023-04-01 13:20:04,393] multiqc                                            [INFO   ]  Compressing plot data
[2023-04-01 13:20:04,476] multiqc                                            [INFO   ]  Report      : case1789/multiqc_report.html
[2023-04-01 13:20:04,476] multiqc                                            [INFO   ]  Data        : case1789/multiqc_data
[2023-04-01 13:20:04,476] multiqc                                            [DEBUG  ]  Moving data file from '/tmp/tmp6ozxv3fc/multiqc_data' to 'case1789/multiqc_data'
[2023-04-01 13:20:04,546] multiqc                                            [INFO   ]  MultiQC complete
